Division,WeightClassKg,Place,Name,Team,BodyweightKg,Best3SquatKg,Best3BenchKg,Best3DeadliftKg,TotalKg,Equipment,Event,Sex,BirthDate
Boys,55.79,1,Radek Spatz,Miles,55.61,156.49,77.11,163.29,396.89,Single-ply,SBD,M,
Boys,55.79,2,Mattox Evans,Big Spring,55.34,138.35,77.11,163.29,378.75,Single-ply,SBD,M,
Boys,55.79,3,Manuel Torres,Miles,53.43,102.06,61.23,113.4,276.69,Single-ply,SBD,M,
Boys,55.79,4,Reagan Chapman #3,Coahoma,54.16,102.06,54.43,111.13,267.62,Single-ply,SBD,M,
Boys,55.79,5,Tucker Halfmann,Miles,53.71,74.84,52.16,72.57,199.58,Single-ply,SBD,M,
Boys,59.87,1,Kenny Richardson,Big Spring,58.97,145.15,92.99,165.56,403.7,Single-ply,SBD,M,
Boys,59.87,2,Ezik Hernandez,Colorado City Colorado,58.6,142.88,83.91,147.42,374.21,Single-ply,SBD,M,
Boys,59.87,3,Conner Andrae,Big Spring,58.97,127.01,81.65,149.69,358.34,Single-ply,SBD,M,
Boys,59.87,4,Carson Moore,Colorado City Colorado,59.06,131.54,68.04,129.27,328.85,Single-ply,SBD,M,
Boys,67.13,1,Paul McMillian,Midland Classical Academy,63.59,147.42,79.38,188.24,415.04,Single-ply,SBD,M,
Boys,67.13,2,Nickoli Aguirre,Stanton,64.68,158.76,83.91,154.22,396.89,Single-ply,SBD,M,
Boys,67.13,3,Jared Wacker,Midland Classical Academy,64.95,145.15,81.65,163.29,390.09,Single-ply,SBD,M,
Boys,67.13,4,Ryan Woolverton,Big Spring,63.96,147.42,88.45,142.88,378.75,Single-ply,SBD,M,
Boys,67.13,5,Tyler Waggoner,Stanton,60.33,147.42,70.31,145.15,362.87,Single-ply,SBD,M,
Boys,67.13,6,Phillip Martinez,Big Spring,61.23,136.08,68.04,140.61,344.73,Single-ply,SBD,M,
Boys,67.13,7,Carson Colby,Stanton,62.87,124.74,70.31,138.35,333.39,Single-ply,SBD,M,
Boys,67.13,8,Caleb Seara,Miles,62.23,120.2,70.31,136.08,326.59,Single-ply,SBD,M,
Boys,67.13,9,Grant Glidewell,Coahoma,65.82,127.01,72.57,124.74,324.32,Single-ply,SBD,M,
Boys,67.13,10,Nick Tutle,Coahoma,65.86,127.01,68.04,124.74,319.78,Single-ply,SBD,M,
Boys,67.13,DQ,Trey Heard,Miles,66.95,108.86,,,,Single-ply,SBD,M,
Boys,67.13,DQ,Hunter Wood,Miles,67.04,95.25,,,,Single-ply,SBD,M,
Boys,74.84,1,Shawn Mendoza,Big Spring,73.03,183.7,124.74,206.38,514.83,Single-ply,SBD,M,
Boys,74.84,2,Vincent Ortiz,Big Spring,69.4,206.38,90.72,188.24,485.34,Single-ply,SBD,M,
Boys,74.84,3,Sean Striegler,Coahoma,73.21,170.1,117.93,151.95,439.98,Single-ply,SBD,M,
Boys,74.84,4,Joseph Connell,Colorado City Colorado,67.68,142.88,90.72,181.44,415.04,Single-ply,SBD,M,
Boys,74.84,5,Chris Ortiz,Colorado City Colorado,67.68,158.76,95.25,151.95,405.97,Single-ply,SBD,M,
Boys,74.84,6,Tanner Wood,Miles,73.75,161.03,79.38,154.22,394.63,Single-ply,SBD,M,
Boys,74.84,7,Chris Chaney,Colorado City Colorado,71.3,145.15,83.91,156.49,385.55,Single-ply,SBD,M,
Boys,74.84,8,Landen McDaniel,Stanton,73.03,147.42,72.57,133.81,353.8,Single-ply,SBD,M,
Boys,74.84,9,Brylee Holik,Miles,73.12,88.45,52.16,120.2,260.82,Single-ply,SBD,M,
Boys,74.84,DQ,Isisah Eleda,Coahoma,73.62,181.44,102.06,,,Single-ply,SBD,M,
Boys,82.1,1,Karl Karabanoff,Big Spring,80.74,174.63,95.25,183.7,453.59,Single-ply,SBD,M,
Boys,82.1,2,Elias Sanchez,Miles,78.02,151.95,83.91,161.03,396.89,Single-ply,SBD,M,
Boys,82.1,3,Grayson Layh,Midland Classical Academy,78.29,147.42,92.99,156.49,396.89,Single-ply,SBD,M,
Boys,82.1,4,Peter Goeke,Midland Classical Academy,76.02,149.69,72.57,170.1,392.36,Single-ply,SBD,M,
Boys,82.1,5,Braiden Boaz,Coahoma,78.47,122.47,83.91,124.74,331.12,Single-ply,SBD,M,
Boys,89.81,1,Isaiah Johnson,Big Spring,86.18,195.04,131.54,197.31,523.9,Single-ply,SBD,M,
Boys,89.81,2,Rogelio Cervantes,Big Spring,88,179.17,111.13,192.78,483.08,Single-ply,SBD,M,
Boys,89.81,3,Juan Presas,Big Spring,89.81,188.24,102.06,183.7,474,Single-ply,SBD,M,
Boys,89.81,4,Kade Miller,Miles,88.63,190.51,106.59,165.56,462.66,Single-ply,SBD,M,
Boys,89.81,5,John-Allan Carby,Stanton,88.99,142.88,79.38,133.81,356.07,Single-ply,SBD,M,
Boys,109.77,1,Ashton Smith #2,Stanton,105.96,276.69,176.9,242.67,696.26,Single-ply,SBD,M,
Boys,109.77,2,Isaiah Rodriguez,Big Spring,109.32,244.94,129.27,233.6,607.81,Single-ply,SBD,M,
Boys,109.77,3,Joel Garcia,Miles,102.24,235.87,117.93,190.51,544.31,Single-ply,SBD,M,
Boys,109.77,4,Manny Hernandez,Stanton,102.69,204.12,131.54,163.29,498.95,Single-ply,SBD,M,
Boys,109.77,5,Lathan Limones,Colorado City Colorado,105.78,188.24,102.06,167.83,458.13,Single-ply,SBD,M,
Boys,109.77,6,Ronnie Sumruld,Colorado City Colorado,103.06,120.2,79.38,133.81,333.39,Single-ply,SBD,M,
Boys,124.74,1,Kobe Cervantes,Coahoma,117.66,244.94,149.69,213.19,607.81,Single-ply,SBD,M,
Boys,124.74,2,Roger Martinez,Stanton,119.84,249.48,136.08,170.1,555.65,Single-ply,SBD,M,
Boys,139.71,1,Payden Alberts,Stanton,127.01,226.8,140.61,199.58,566.99,Single-ply,SBD,M,
Boys,139.71,2,JR Ramirez,Stanton,131.81,199.58,102.06,138.35,439.98,Single-ply,SBD,M,
Boys,139.71+,1,Christian Ashby,Colorado City Colorado,142.88,188.24,111.13,158.76,458.13,Single-ply,SBD,M,
Boys,139.71+,DQ,John Reagan,Coahoma,146.78,,,,,Single-ply,SBD,M,
