Place,Name,Sex,BirthDate,Age,Country,State,Equipment,Division,BodyweightKg,WeightClassKg,Squat1Kg,Squat2Kg,Squat3Kg,Best3SquatKg,Bench1Kg,Bench2Kg,Bench3Kg,Best3BenchKg,Deadlift1Kg,Deadlift2Kg,Deadlift3Kg,Best3DeadliftKg,TotalKg,Event
NS,Isabelle Marosek,F,2000-07-06,23,USA,GA,Raw,J-T,,,,,,,,,,,,,,,,SBD
1,Ann McManus,F,1983-11-18,40,USA,SC,Raw,M1-T,122.8,110+,80,-90,90,90,-60,60,-70,60,100,117.5,127.5,127.5,277.5,SBD
NS,Isabelle Marosek,F,2000-07-06,23,USA,GA,Raw,O-T,,,,,,,,,,,,,,,,SBD
1,Barbara Morales,F,1997-12-04,26,USA,GA,Raw,O-T,57.2,60,100,107.5,112.5,112.5,-60,62.5,-65,62.5,155,162.5,167.5,167.5,342.5,SBD
1,Mackenzie Rideout,F,1992-06-25,31,USA,GA,Raw,O-T,70.9,75,110,117.5,125,125,60,65,,65,132.5,140,-145,140,330,SBD
1,Brittany Gagne,F,1993-07-07,30,USA,AL,Wraps,O-U,80.7,82.5,215,227.5,237.5,237.5,95,100,105,105,215,222.5,230,230,572.5,SBD
2,Karla Pineda Leon,F,1998-04-26,25,USA,GA,Raw,O-T,76.3,82.5,95,97.5,105,105,45,50,-57.5,50,110,117.5,125,125,280,SBD
1,Tiffany Stone,F,1979-08-28,44,USA,SC,Wraps,M1-U,53.7,56,110,115,-117.5,115,52.5,55,57.5,57.5,130,-135,140,140,312.5,SBD
NS,Shannon Nash,F,1971-11-23,52,USA,SC,Raw,M3-U,,,,,,,,,,,,,,,,B
NS,Shannon Nash,F,1971-11-23,52,USA,SC,Raw,O-U,,,,,,,,,,,,,,,,B
NS,Mikal Warren,M,2001-12-20,21,USA,AL,Raw,J-T,,,,,,,,,,,,,,,,SBD
1,Chris Berdecia,M,2003-09-03,20,USA,GA,Raw,J-T,103.4,110,240,260,-267.5,260,117.5,125,130,130,277.5,290,297.5,297.5,687.5,SBD
NS,Jason Scott #1,M,1983-04-08,40,USA,SC,Raw,M1-U,,,,,,,,,,,,,,,,SBD
NS,Richard Hawks,M,1987-12-19,35,USA,GA,Raw,O-T,,,,,,,,,,,,,,,,SBD
1,Joey Webb,M,1988-09-29,35,USA,GA,Raw,O-T,74.3,75,170,185,-187.5,185,137.5,-145,-145,137.5,182.5,-200,200,200,522.5,SBD
1,Thomas Boswinkle,M,2001-04-19,22,USA,GA,Raw,O-T,81.6,82.5,247.5,262.5,270,270,157.5,165,170,170,270,285,-290,285,725,SBD
2,Alex W Massey,M,2004-04-28,19,USA,GA,Raw,O-T,77.4,82.5,240,-250,-250,240,125,-132.5,132.5,132.5,227.5,245,255,255,627.5,SBD
1,Alex Curry,M,1997-07-09,26,USA,GA,Raw,O-T,88.4,90,165,175,182.5,182.5,25,,,25,212.5,222.5,242.5,242.5,450,SBD
1,Samuel Flemons,M,1999-03-09,24,USA,MS,Raw,O-T,125.8,140,235,255,-272.5,255,185,195,200,200,280,-305,-305,280,735,SBD
1,Hart Mizell,M,1991-08-04,32,USA,GA,Raw,O-U,129.5,140,275,300,307.5,307.5,185,200,205,205,287.5,-305,305,305,817.5,SBD
1,Chad Geiger,M,1991-10-11,32,USA,GA,Raw,O-U,149.2,140+,317.5,335,340,340,212.5,227.5,-237.5,227.5,330,342.5,347.5,347.5,915,SBD
NS,Richard Hawks,M,1987-12-19,35,USA,GA,Raw,S-T,,,,,,,,,,,,,,,,SBD
1,Kevin Stadlbauer,M,1988-04-13,35,USA,GA,Raw,S-T,99.1,100,165,175,182.5,182.5,-115,120,-125,120,200,210,220,220,522.5,SBD
NS,James Long,M,1987-12-16,35,USA,GA,Raw,S-U,,,,,,,,,,,,,,,,SBD
1,Alex W Massey,M,2004-04-28,19,USA,GA,Raw,T3-X,77.4,82.5,240,-250,-250,240,125,-132.5,132.5,132.5,227.5,245,255,255,627.5,SBD
1,Jacob L Anderson,M,2003-01-17,20,USA,GA,Wraps,J-T,89.6,90,295,307.5,317.5,317.5,-210,210,215,215,252.5,272.5,282.5,282.5,815,SBD
1,Dylan Osborne,M,1999-01-30,24,USA,SC,Wraps,O-U,81.5,82.5,265,-292.5,-292.5,265,160,172.5,-182.5,172.5,265,-272.5,,265,702.5,SBD
1,Trey Kinney,M,1995-10-28,28,USA,AL,Wraps,O-U,141.8,140+,295,-320,320,320,167.5,180,190,190,-295,295,-327.5,295,805,SBD
1,James Vang,M,1992-03-25,31,USA,GA,Single-ply,O-U,67.4,67.5,270,285,295,295,-205,205,212.5,212.5,270,287.5,-300,287.5,795,SBD
NS,Gaston Parage,M,1985-04-19,38,USA,GA,Multi-ply,O-U,,,,,,,,,,,,,,,,SBD
NS,Gaston Parage,M,1985-04-19,38,USA,GA,Multi-ply,S-U,,,,,,,,,,,,,,,,SBD
1,Tyler Kapeller,M,1989-06-20,34,USA,GA,Raw,O-U,123.1,125,242.5,255,-260,255,,,,,,,,,255,S
NS,Jermaine Simpson,M,2002-09-27,21,USA,GA,Raw,J-T,,,,,,,,,,,,,,,,B
1,Joe Franklin,M,1971-08-06,52,USA,GA,Raw,M3-U,109.4,110,,,,,167.5,-175,175,175,,,,,175,B
1,Bart Perez,M,2000-05-01,23,USA,GA,Raw,O-T,98.5,100,,,,,182.5,-192.5,,182.5,,,,,182.5,B
1,Joe Franklin,M,1971-08-06,52,USA,GA,Raw,O-U,109.4,110,,,,,167.5,-175,175,175,,,,,175,B
1,Chris Leslie #2,M,1985-01-15,38,USA,GA,Raw,O-U,175.9,140+,,,,,185,195,-207.5,195,,,,,195,B
1,Chris Leslie #2,M,1985-01-15,38,USA,GA,Raw,S-U,175.9,140+,,,,,185,195,-207.5,195,,,,,195,B
1,Zack A Cox,M,2004-03-31,19,USA,NC,Raw,T3-X,79.9,82.5,,,,,-130,130,-135,130,,,,,130,B
NS,John von Rohr,M,1947-12-08,76,USA,SC,Single-ply,M8-T,,,,,,,,,,,,,,,,B
NS,John von Rohr,M,1947-12-08,76,USA,SC,Single-ply,MPF-T,,,,,,,,,,,,,,,,B
NS,Ben Reese,M,1994-01-31,29,USA,SC,Multi-ply,O-U,,,,,,,,,,,,,,,,B
NS,Stephen Lane #1,M,1988-02-25,35,USA,SC,Multi-ply,O-U,,,,,,,,,,,,,,,,B
NS,Stephen Lane #1,M,1988-02-25,35,USA,SC,Multi-ply,S-U,,,,,,,,,,,,,,,,B
1,Tyler Kapeller,M,1989-06-20,34,USA,GA,Raw,O-U,123.1,125,,,,,,,,,-272.5,-272.5,272.5,272.5,272.5,D
1,Oliver C George,M,1967-02-03,56,USA,VA,Single-ply,M4-T,110,110,,,,,,,,,182.5,215,232.5,232.5,232.5,D
1,Oliver C George,M,1967-02-03,56,USA,VA,Single-ply,MPF-T,110,110,,,,,,,,,182.5,215,232.5,232.5,232.5,D
1,Oliver C George,M,1967-02-03,56,USA,VA,Single-ply,O-T,110,110,,,,,,,,,182.5,215,232.5,232.5,232.5,D
1,Tee Meyers,M,1956-09-15,67,USA,GA,Multi-ply,M6-T,88.1,90,,,,,,,,,250,275,287.5,287.5,287.5,D
NS,Stephen Lane #1,M,1988-02-25,35,USA,SC,Multi-ply,O-U,,,,,,,,,,,,,,,,D
NS,Stephen Lane #1,M,1988-02-25,35,USA,SC,Multi-ply,S-U,,,,,,,,,,,,,,,,D
