Division,WeightClassKg,Place,Name,Team,BodyweightKg,Best3SquatKg,Best3BenchKg,Best3DeadliftKg,TotalKg,Equipment,Event,Sex
Boys,51.71,1,Uriel Rodriguez,Crawford,50.89,149.69,92.99,154.22,396.89,Single-ply,SBD,M
Boys,51.71,2,Antonio Ponce,Glen Rose,51.44,142.88,74.84,170.1,387.82,Single-ply,SBD,M
Boys,51.71,3,Cameron Carpenter,McGregor,51.07,131.54,70.31,167.83,369.68,Single-ply,SBD,M
Boys,51.71,4,Isaack Santillan,Clifton,51.71,131.54,77.11,142.88,351.53,Single-ply,SBD,M
Boys,51.71,5,Julian Coronado,San Saba,51.62,117.93,74.84,154.22,347,Single-ply,SBD,M
Boys,51.71,6,Angel Contreras,Comfort,50.62,113.4,70.31,138.35,322.05,Single-ply,SBD,M
Boys,55.79,7,Payton Johnson,San Saba,51.8,108.86,70.31,138.35,317.51,Single-ply,SBD,M
Boys,51.71,8,Tracer Toten,Mart,49.99,113.4,56.7,124.74,294.84,Single-ply,SBD,M
Boys,51.71,9,Tucker Neal,Jarrell,50.89,102.06,61.23,122.47,285.76,Single-ply,SBD,M
Boys,51.71,10,Bryan McNeill,Rogers,45.45,102.06,54.43,117.93,274.42,Single-ply,SBD,M
Boys,55.79,1,Cody Villa,Crawford,55.61,161.03,113.4,217.72,492.15,Single-ply,SBD,M
Boys,55.79,2,Cody Halcom,Glen Rose,55.79,145.15,72.57,165.56,383.29,Single-ply,SBD,M
Boys,59.87,3,Gabe Spikes,Lago Vista,55.88,142.88,95.25,142.88,381.02,Single-ply,SBD,M
Boys,55.79,4,Hunter Mullins,Jarrell,54.25,140.61,86.18,145.15,371.95,Single-ply,SBD,M
Boys,55.79,5,David Hernandez,Hearne,54.7,120.2,86.18,161.03,367.41,Single-ply,SBD,M
Boys,55.79,6,Osvaldo Antunez,Hillsboro,55.16,133.81,86.18,145.15,365.14,Single-ply,SBD,M
Boys,55.79,7,Daniel Rosales,San Saba,55.7,115.67,74.84,158.76,349.27,Single-ply,SBD,M
Boys,59.87,DQ,Alex Amador,Rosebud-Lott,55.97,,,,,Single-ply,SBD,M
Boys,55.79,DQ,Rodrigo Hernandez,Hillsboro,55.07,,,,,Single-ply,SBD,M
Boys,55.79,DQ,Davin Carboni,Hillsboro,55.25,,,,,Single-ply,SBD,M
Boys,59.87,1,Azahel Herrera,Glen Rose,58.51,174.63,113.4,190.51,478.54,Single-ply,SBD,M
Boys,59.87,2,Hector Jaramillo,Franklin,56.97,183.7,99.79,170.1,453.59,Single-ply,SBD,M
Boys,59.87,3,Tommy Jiminez,Gustine,59.42,154.22,86.18,163.29,403.7,Single-ply,SBD,M
Boys,67.13,4,Emiliano Mar,Clifton,60.06,138.35,90.72,158.76,387.82,Single-ply,SBD,M
Boys,59.87,5,Bobby Hanson,Axtell,59.06,140.61,90.72,154.22,385.55,Single-ply,SBD,M
Boys,59.87,6,Jacob Powell,Little River Academy,58.69,136.08,77.11,165.56,378.75,Single-ply,SBD,M
Boys,59.87,7,Alex Reynoso,West,57.79,129.27,77.11,156.49,362.87,Single-ply,SBD,M
Boys,59.87,8,Justin O'Neal,Clifton,58.79,140.61,72.57,147.42,360.61,Single-ply,SBD,M
Boys,59.87,9,David Villafona,McGregor,58.79,129.27,79.38,145.15,353.8,Single-ply,SBD,M
Boys,67.13,DQ,Jose Hinojosa,Moody,60.06,,,,,Single-ply,SBD,M
Boys,67.13,1,Dylan Haralson,Axtell,66.22,231.33,111.13,238.14,580.6,Single-ply,SBD,M
Boys,67.13,2,Cesar Herrera,Glen Rose,63.96,213.19,111.13,204.12,528.44,Single-ply,SBD,M
Boys,67.13,3,Armando Aguilar,Gustine,66.68,197.31,115.67,195.04,508.02,Single-ply,SBD,M
Boys,67.13,4,Adolfo Rodriguez,West,64.68,195.04,120.2,176.9,492.15,Single-ply,SBD,M
Boys,67.13,5,Tanner Bailey,Waco Reicher Catholic,66.68,174.63,99.79,204.12,478.54,Single-ply,SBD,M
Boys,67.13,6,Dalton Zinck,Dublin,66.68,176.9,111.13,183.7,471.74,Single-ply,SBD,M
Boys,67.13,7,Dorian Jimenez,Brady,65.05,163.29,99.79,192.78,455.86,Single-ply,SBD,M
Boys,67.13,8,Ryan Martinez,Early,66.04,163.29,104.33,170.1,437.72,Single-ply,SBD,M
Boys,67.13,9,Josh Turner #8,McGregor,66.77,170.1,92.99,174.63,437.72,Single-ply,SBD,M
Boys,74.84,10,Hunter Hernandez #2,Jarrell,67.27,142.88,97.52,158.76,399.16,Single-ply,SBD,M
Boys,74.84,1,Devyn Hebbe,Axtell,73.66,254.01,111.13,235.87,601.01,Single-ply,SBD,M
Boys,74.84,2,Roy Ward,Waco Reicher Catholic,72.85,231.33,138.35,213.19,582.87,Single-ply,SBD,M
Boys,74.84,3,Alex Kyner,Thrall,72.39,213.19,124.74,226.8,564.72,Single-ply,SBD,M
Boys,74.84,4,Travis Stone,Rogers,71.3,215.46,111.13,226.8,553.38,Single-ply,SBD,M
Boys,74.84,5,Camry Garner,Hillsboro,74.3,201.85,124.74,217.72,544.31,Single-ply,SBD,M
Boys,74.84,6,Bryce Williams,Little River Academy,74.03,206.38,111.13,222.26,539.77,Single-ply,SBD,M
Boys,82.1,7,Alex Behrendt,Thrall,75.02,204.12,136.08,190.51,530.7,Single-ply,SBD,M
Boys,74.84,8,Nate Seale,McGregor,72.03,192.78,122.47,210.92,526.17,Single-ply,SBD,M
Boys,74.84,9,Deontre Richardson,Hillsboro,70.13,183.7,113.4,217.72,514.83,Single-ply,SBD,M
Boys,74.84,10,Hunter Douzat,Little River Academy,72.57,213.19,117.93,,331.12,Single-ply,SB,M
Boys,89.81,1,Marco Castro,Waco Reicher Catholic,82.28,244.94,149.69,240.4,635.03,Single-ply,SBD,M
Boys,82.1,2,Allen Scott,Waco Reicher Catholic,78.65,240.4,149.69,235.87,625.96,Single-ply,SBD,M
Boys,82.1,3,Rodney Rogers,Franklin,78.56,224.53,145.15,197.31,566.99,Single-ply,SBD,M
Boys,82.1,4,Payton Nance,Comanche,80.92,217.72,124.74,210.92,553.38,Single-ply,SBD,M
Boys,82.1,5,Barclay Brunsun,Crawford,77.75,206.38,129.27,208.65,544.31,Single-ply,SBD,M
Boys,82.1,6,Eduardo Loma,Jarrell,78.47,226.8,154.22,163.29,544.31,Single-ply,SBD,M
Boys,82.1,7,Brett Ramsey,Moody,80.2,222.26,99.79,213.19,535.24,Single-ply,SBD,M
Boys,82.1,8,Zach Smith #11,Little River Academy,78.74,197.31,122.47,206.38,526.17,Single-ply,SBD,M
Boys,82.1,9,Leno Santos,Holland,76.11,197.31,129.27,174.63,501.22,Single-ply,SBD,M
Boys,82.1,10,Aaron Harralson,West,78.83,185.97,131.54,183.7,501.22,Single-ply,SBD,M
Boys,89.81,1,Tanner Coone,Axtell,88,226.8,156.49,233.6,616.89,Single-ply,SBD,M
Boys,99.79,2,Eduardo Cruz Rubio,Hillsboro,89.9,256.28,122.47,222.26,601.01,Single-ply,SBD,M
Boys,89.81,3,Logan Willenborg,West,86.27,222.26,131.54,231.33,585.13,Single-ply,SBD,M
Boys,89.81,4,Jerry Trejo,Brady,84.46,217.72,142.88,222.26,582.87,Single-ply,SBD,M
Boys,89.81,5,Miguel Barraza,Glen Rose,88.54,231.33,142.88,208.65,582.87,Single-ply,SBD,M
Boys,89.81,6,Mikey Castillo,McGregor,86.82,219.99,122.47,235.87,578.33,Single-ply,SBD,M
Boys,99.79,7,Michael Autenreith,Waco Reicher Catholic,89.9,213.19,138.35,215.46,566.99,Single-ply,SBD,M
Boys,89.81,8,Jessy Estrada,Brady,87.09,210.92,111.13,222.26,544.31,Single-ply,SBD,M
Boys,89.81,9,Isaiah Regeon,Brady,87.36,219.99,133.81,190.51,544.31,Single-ply,SBD,M
Boys,89.81,10,Miguel Elizondo,Early,83.91,215.46,113.4,204.12,532.97,Single-ply,SBD,M
Boys,89.81,DQ,Ty Cochrane,Tolar,84.1,,,,,Single-ply,SBD,M
Boys,99.79,1,Brandon Bruce,Rogers,94.08,281.23,154.22,249.48,684.92,Single-ply,SBD,M
Boys,99.79,2,Bryson Jones,Rogers,98.07,265.35,163.29,247.21,675.85,Single-ply,SBD,M
Boys,99.79,3,Heath Nicholson,Glen Rose,96.52,256.28,140.61,249.48,646.37,Single-ply,SBD,M
Boys,99.79,4,Aaron Platt,Tolar,98.52,226.8,167.83,222.26,616.89,Single-ply,SBD,M
Boys,99.79,5,Braxton Barrios,Glen Rose,93.71,235.87,145.15,204.12,585.13,Single-ply,SBD,M
Boys,99.79,6,Alex Parsons,McGregor,92.99,235.87,129.27,201.85,566.99,Single-ply,SBD,M
Boys,99.79,7,Cj Camarillo,Brady,96.62,208.65,158.76,195.04,562.45,Single-ply,SBD,M
Boys,99.79,8,Jason Marroquin #2,Axtell,94.8,204.12,122.47,233.6,560.19,Single-ply,SBD,M
Boys,99.79,9,Erick Marton,Axtell,95.16,226.8,113.4,215.46,555.65,Single-ply,SBD,M
Boys,99.79,10,Joe Barron,Florence,99.16,229.06,104.33,201.85,535.24,Single-ply,SBD,M
Boys,109.77,1,Kirkland Weaver,Brady,109.23,290.3,161.03,247.21,698.53,Single-ply,SBD,M
Boys,109.77,2,Daegan Fowler,Lago Vista,103.6,254.01,176.9,256.28,687.19,Single-ply,SBD,M
Boys,109.77,3,Christian Contreras #1,Hearne,107.95,249.48,165.56,256.28,671.32,Single-ply,SBD,M
Boys,109.77,4,Jason Harris,West,104.42,276.69,149.69,233.6,659.98,Single-ply,SBD,M
Boys,109.77,5,Ambrosio Rodriguez,Dublin,109.23,260.82,165.56,226.8,653.17,Single-ply,SBD,M
Boys,109.77,6,Bryan Villa,Grandview,105.69,204.12,161.03,208.65,573.79,Single-ply,SBD,M
Boys,109.77,7,Logan Prock,Mart,100.61,240.4,140.61,174.63,555.65,Single-ply,SBD,M
Boys,109.77,8,Colton Heine,Thrall,105.05,190.51,142.88,204.12,537.51,Single-ply,SBD,M
Boys,109.77,DQ,Eddie Ordonez,Luling,108.32,,,,,Single-ply,SBD,M
Boys,124.74,1,Tyler Thompson,Rogers,122.92,272.16,176.9,238.14,687.19,Single-ply,SBD,M
Boys,124.74,2,Blake Johnson #4,Franklin,121.2,292.57,142.88,247.21,682.66,Single-ply,SBD,M
Boys,124.74,3,Pedro Bernal,Comanche,121.29,283.5,161.03,238.14,682.66,Single-ply,SBD,M
Boys,124.74,4,Roger Miles,Luling,115.03,249.48,176.9,244.94,671.32,Single-ply,SBD,M
Boys,124.74,5,Colton Wood,Florence,122.83,263.08,149.69,219.99,632.76,Single-ply,SBD,M
Boys,124.74,6,Tomas Salomon,Cameron Yoe,112.76,254.01,131.54,235.87,621.42,Single-ply,SBD,M
Boys,124.74,7,Ishmael Ramirez,Hillsboro,112.22,224.53,127.01,213.19,564.72,Single-ply,SBD,M
Boys,124.74,8,Quentin White,Rockdale,121.29,226.8,108.86,195.04,530.7,Single-ply,SBD,M
Boys,124.74+,9,Kyle Nicholson,Holland,124.92,260.82,158.76,,419.57,Single-ply,SB,M
Boys,124.74+,1,Grayson Eaton,Little River Academy,163.47,312.98,181.44,254.01,748.43,Single-ply,SBD,M
Boys,124.74+,2,Landon Beck,Early,129.91,278.96,183.7,263.08,725.75,Single-ply,SBD,M
Boys,124.74+,3,Jordan Allen,Clifton,161.66,306.17,181.44,238.14,725.75,Single-ply,SBD,M
Boys,124.74+,4,Kelby Stewart,Florence,144.06,299.37,145.15,215.46,659.98,Single-ply,SBD,M
Boys,124.74+,5,Weldon Edwards,Early,161.84,240.4,147.42,226.8,614.62,Single-ply,SBD,M
Boys,124.74+,6,Dontae Green,Luling,143.06,215.46,151.95,242.67,610.08,Single-ply,SBD,M
Boys,124.74+,7,Joel Sanchez #1,Luling,164.84,249.48,140.61,215.46,605.55,Single-ply,SBD,M
Boys,124.74+,8,Kelton Parson,Bangs,138.35,238.14,149.69,192.78,580.6,Single-ply,SBD,M
Boys,124.74+,9,Connor Murphy #2,Early,136.62,174.63,122.47,181.44,478.54,Single-ply,SBD,M
Boys,124.74+,DQ,Bryan Swift,Luling,142.34,,,,,Single-ply,SBD,M
